<?xml version="1.0" encoding="UTF-8" standalone="no"?>
<!-- Created with Inkscape (http://www.inkscape.org/) -->

<svg
   xmlns:dc="http://purl.org/dc/elements/1.1/"
   xmlns:cc="http://creativecommons.org/ns#"
   xmlns:rdf="http://www.w3.org/1999/02/22-rdf-syntax-ns#"
   xmlns:svg="http://www.w3.org/2000/svg"
   xmlns="http://www.w3.org/2000/svg"
   xmlns:sodipodi="http://sodipodi.sourceforge.net/DTD/sodipodi-0.dtd"
   xmlns:inkscape="http://www.inkscape.org/namespaces/inkscape"
   width="1000"
   height="1000"
   viewBox="0 0 264.58333 264.58334"
   version="1.1"
   id="svg8"
   sodipodi:docname="mouse'.svg"
   inkscape:version="0.92.3 (2405546, 2018-03-11)"
   inkscape:export-filename="/home/chateau/Ordinatorite/apps/eauchat/images/game/mouse-black.png"
   inkscape:export-xdpi="85.709999"
   inkscape:export-ydpi="85.709999">
  <defs
     id="defs2">
    <inkscape:path-effect
       effect="spiro"
       id="path-effect1050"
       is_visible="true" />
    <inkscape:path-effect
       effect="spiro"
       id="path-effect2671"
       is_visible="true" />
    <inkscape:path-effect
       effect="spiro"
       id="path-effect2667"
       is_visible="true" />
    <inkscape:path-effect
       effect="spiro"
       id="path-effect1217"
       is_visible="true" />
    <inkscape:path-effect
       effect="spiro"
       id="path-effect1180"
       is_visible="true" />
    <inkscape:path-effect
       effect="spiro"
       id="path-effect1176"
       is_visible="true" />
    <inkscape:path-effect
       effect="spiro"
       id="path-effect1132"
       is_visible="true" />
    <inkscape:path-effect
       effect="spiro"
       id="path-effect1122"
       is_visible="true" />
    <inkscape:path-effect
       effect="spiro"
       id="path-effect1106"
       is_visible="true" />
    <inkscape:path-effect
       effect="spiro"
       id="path-effect1041"
       is_visible="true" />
    <inkscape:path-effect
       effect="spiro"
       id="path-effect1037"
       is_visible="true" />
    <inkscape:path-effect
       effect="spiro"
       id="path-effect1033"
       is_visible="true" />
    <inkscape:path-effect
       effect="spiro"
       id="path-effect1029"
       is_visible="true" />
    <inkscape:path-effect
       effect="spiro"
       id="path-effect1025"
       is_visible="true" />
    <inkscape:path-effect
       effect="spiro"
       id="path-effect1021"
       is_visible="true" />
    <inkscape:path-effect
       effect="spiro"
       id="path-effect1017"
       is_visible="true" />
    <inkscape:path-effect
       effect="spiro"
       id="path-effect949"
       is_visible="true" />
    <inkscape:path-effect
       effect="spiro"
       id="path-effect937"
       is_visible="true" />
    <inkscape:path-effect
       effect="spiro"
       id="path-effect917"
       is_visible="true" />
    <inkscape:path-effect
       effect="spiro"
       id="path-effect913"
       is_visible="true" />
    <inkscape:path-effect
       effect="spiro"
       id="path-effect869"
       is_visible="true" />
    <inkscape:path-effect
       effect="spiro"
       id="path-effect865"
       is_visible="true" />
    <inkscape:path-effect
       effect="spiro"
       id="path-effect861"
       is_visible="true" />
    <inkscape:path-effect
       effect="spiro"
       id="path-effect857"
       is_visible="true" />
    <inkscape:path-effect
       effect="spiro"
       id="path-effect853"
       is_visible="true" />
    <inkscape:path-effect
       effect="spiro"
       id="path-effect849"
       is_visible="true" />
    <inkscape:path-effect
       effect="spiro"
       id="path-effect845"
       is_visible="true" />
    <inkscape:path-effect
       effect="spiro"
       id="path-effect841"
       is_visible="true" />
    <inkscape:path-effect
       effect="spiro"
       id="path-effect837"
       is_visible="true" />
    <inkscape:path-effect
       effect="spiro"
       id="path-effect833"
       is_visible="true" />
    <inkscape:path-effect
       effect="spiro"
       id="path-effect829"
       is_visible="true" />
  </defs>
  <sodipodi:namedview
     id="base"
     pagecolor="#ffffff"
     bordercolor="#666666"
     borderopacity="1.0"
     inkscape:pageopacity="0.0"
     inkscape:pageshadow="2"
     inkscape:zoom="1.0040916"
     inkscape:cx="-862.12459"
     inkscape:cy="1112.2551"
     inkscape:document-units="mm"
     inkscape:current-layer="layer1"
     showgrid="false"
     units="px"
     inkscape:window-width="1280"
     inkscape:window-height="782"
     inkscape:window-x="0"
     inkscape:window-y="18"
     inkscape:window-maximized="0" />
  <metadata
     id="metadata5">
    <rdf:RDF>
      <cc:Work
         rdf:about="">
        <dc:format>image/svg+xml</dc:format>
        <dc:type
           rdf:resource="http://purl.org/dc/dcmitype/StillImage" />
        <dc:title />
      </cc:Work>
    </rdf:RDF>
  </metadata>
  <g
     inkscape:label="Layer 1"
     inkscape:groupmode="layer"
     id="layer1"
     transform="translate(0,-32.41665)">
    <path
       style="fill:#ff1a1a;fill-opacity:1;fill-rule:evenodd;stroke:none;stroke-width:0.26458332px;stroke-linecap:butt;stroke-linejoin:miter;stroke-opacity:1"
       d="m -294.64197,27.698233 c 28.98584,13.626741 25.07238,11.146679 26.99747,-15.746339 5.78818,20.904168 7.56194,30.839746 25.4717,3.182922 -2.85693,8.980033 -16.43415,25.443814 10.65397,21.207704 -14.73383,8.320424 -10.56906,9.936175 1.91112,17.898511 -0.75983,0.505002 -35.2946,-17.612687 -26.39985,19.284848 -10.72063,-20.99758 -9.15921,-20.002866 -27.13456,-2.743709 13.97726,-24.431681 10.4544,-20.3688 -15.77314,-16.827123 28.65114,-9.228996 26.56463,-8.452811 4.27329,-26.256814 z"
       id="path1052"
       inkscape:connector-curvature="0"
       sodipodi:nodetypes="ccccccccc"
       inkscape:export-filename="/home/chateau/Ordinatorite/apps/eauchat/images/game/new.png"
       inkscape:export-xdpi="85.709999"
       inkscape:export-ydpi="85.709999" />
    <g
       id="g2732"
       transform="matrix(-1.199393,0.87141007,-0.87141007,-1.199393,394.72277,248.46513)"
       style="opacity:1"
       inkscape:export-filename="/home/chateau/Ordinatorite/apps/eauchat/images/game/mouse-black-turned.png"
       inkscape:export-xdpi="85.709999"
       inkscape:export-ydpi="85.709999">
      <path
         inkscape:original-d="m 96.21703,207.73196 c -0.329512,-3.9041 -1.643528,-7.65113 -3.207234,-11.22532 -2.634446,-6.02159 -7.069289,-12.1207 -9.087165,-18.17433 -0.415232,-1.2457 0.216199,-2.97912 0,-4.27631 -0.738831,-4.43298 -3.969541,-15.36312 -7.483547,-18.17433 -0.608475,-0.48678 -2.885212,-0.64079 -3.741774,-1.06908 -7.490277,-3.74514 -18.148152,-23.96264 -20.312483,-31.5378 -2.485803,-8.7003 -0.53454,-18.40075 -0.53454,-27.261491 0,-3.241395 0.08045,-6.443088 0.53454,-9.621705 0.606388,-4.244708 4.823174,-9.654564 6.414468,-13.898015 0.02908,-0.07754 0.72906,-2.446015 1.069078,-2.672694 6.011302,-4.007535 22.551753,13.739069 25.657874,18.708868 4.045288,6.472457 9.087164,15.926307 9.087164,23.519717 0,0.90769 -0.203493,9.41821 0.534541,10.15624 3.020793,3.0208 16.918558,1.243 21.916098,3.74177 6.88894,3.44447 10.11873,-6.51896 13.36348,-10.69078 4.87338,-6.26577 12.13533,-10.53171 17.63979,-16.036167 3.98411,-3.984117 4.56598,-11.102888 10.15624,-13.898017 2.5655,-1.282753 10.51082,-1.727163 11.75986,1.603618 5.10537,13.614336 11.26636,38.103086 -3.74178,48.108516 -2.87921,1.91947 -20.48632,8.36577 -21.38156,10.15624 -3.82159,7.64318 2.14025,19.23713 -0.53454,27.26149 -0.58865,1.76595 -1.5148,3.47535 -2.13815,5.34539 -0.99624,2.98872 -0.99777,5.52337 -1.60362,8.55263 -0.14825,0.74127 -1.26554,0.92747 -1.60362,1.60361 -1.57757,3.15515 -4.78703,9.66934 -3.20723,12.82894"
         inkscape:path-effect="#path-effect917"
         inkscape:connector-curvature="0"
         id="path915"
         d="m 96.21703,207.73196 c -0.3182,-3.90383 -1.415001,-7.74264 -3.207234,-11.22532 -1.563923,-3.03903 -3.635687,-5.78334 -5.428342,-8.69331 -1.792655,-2.90997 -3.333953,-6.07867 -3.658823,-9.48102 -0.135603,-1.42016 -0.05605,-2.85079 0,-4.27631 0.137488,-3.49672 0.123075,-7.06612 -0.934175,-10.40202 -0.528624,-1.66794 -1.319623,-3.26295 -2.418077,-4.62489 -1.098455,-1.36195 -2.51153,-2.48572 -4.131295,-3.14742 -1.201828,-0.49097 -2.490885,-0.72164 -3.741774,-1.06908 -6.412287,-1.78106 -11.668317,-6.66446 -14.938038,-12.46088 -3.26972,-5.79642 -4.726675,-12.45348 -5.374445,-19.07692 -0.885024,-9.04937 -0.33749,-18.17109 -0.53454,-27.261491 -0.06983,-3.221451 -0.228536,-6.491156 0.53454,-9.621705 1.211188,-4.968945 4.618243,-9.109386 6.414468,-13.898015 0.337288,-0.899189 0.619031,-1.824306 1.069078,-2.672694 0.793084,-1.495051 2.098576,-2.698573 3.620064,-3.439677 1.521488,-0.741103 3.249695,-1.027376 4.937011,-0.896512 3.374632,0.261727 6.473604,2.163506 8.729408,4.686994 2.255803,2.523488 3.752993,5.633081 4.951771,8.798452 1.198779,3.16537 2.129244,6.430463 3.41962,9.559611 1.6142,3.914416 3.775148,7.576976 5.598333,11.398532 1.823186,3.821555 3.326496,7.890115 3.488831,12.121185 0.06535,1.70329 -0.08786,3.40682 -0.113316,5.11117 -0.02545,1.70435 0.08223,3.43712 0.647857,5.04507 0.705297,2.005 2.113771,3.73472 3.866403,4.93711 1.752635,1.2024 3.836125,1.88851 5.951945,2.09054 4.23162,0.40404 8.4553,-1.09444 12.09775,-3.28588 4.89399,-2.94442 8.9268,-7.09403 13.36348,-10.69078 3.10513,-2.51729 6.41745,-4.77015 9.52109,-7.28928 3.10364,-2.51913 6.02586,-5.34121 8.1187,-8.746887 1.53385,-2.496042 2.59197,-5.255376 4.04615,-7.79866 1.45418,-2.543284 3.41583,-4.948758 6.11009,-6.099357 1.88643,-0.805608 4.01995,-0.935199 6.04066,-0.582593 2.02071,0.352606 3.93813,1.168662 5.7192,2.186211 4.35858,2.49012 7.98675,6.241025 10.33268,10.678876 2.34594,4.43785 3.40206,9.54766 3.01009,14.55209 -0.39197,5.00442 -2.23043,9.88687 -5.23464,13.90839 -3.00421,4.02153 -7.16402,7.16905 -11.84991,8.96916 -3.78348,1.45345 -7.8453,2.03115 -11.70194,3.2776 -1.92831,0.62322 -3.81392,1.41935 -5.50328,2.53866 -1.68936,1.11931 -3.18118,2.57463 -4.17634,4.33998 -1.13586,2.01494 -1.58602,4.36088 -1.61542,6.67373 -0.0294,2.31286 0.34342,4.6109 0.76409,6.88537 0.42066,2.27447 0.89128,4.54677 1.06107,6.85357 0.16979,2.30681 0.0292,4.66892 -0.74428,6.84882 -0.64268,1.81136 -1.71124,3.47141 -2.13815,5.34539 -0.32663,1.43377 -0.26119,2.92313 -0.35061,4.39092 -0.0894,1.46778 -0.36284,2.99125 -1.25301,4.16171 -0.45823,0.60252 -1.05682,1.08014 -1.60362,1.60361 -1.6791,1.60746 -2.89204,3.69633 -3.45581,5.95142 -0.56378,2.25509 -0.47653,4.66901 0.24858,6.87752"
         style="opacity:1;fill:none;fill-opacity:1;stroke:#000000;stroke-width:5.39617634;stroke-linecap:round;stroke-linejoin:round;stroke-miterlimit:4;stroke-dasharray:none;stroke-dashoffset:0;stroke-opacity:1;paint-order:normal" />
      <path
         inkscape:original-d="m 141.65285,183.6777 c 4.16281,4.10864 8.65846,8.07101 13.89801,10.69078 7.25884,3.62942 35.73358,8.96268 42.76313,4.27631"
         inkscape:path-effect="#path-effect937"
         inkscape:connector-curvature="0"
         id="path935"
         d="m 141.65285,183.6777 c 4.02864,4.26834 8.73911,7.89178 13.89801,10.69078 12.92927,7.01489 28.70079,8.59204 42.76313,4.27631"
         style="opacity:1;fill:none;fill-opacity:1;stroke:#000000;stroke-width:5.39617634;stroke-linecap:round;stroke-linejoin:round;stroke-miterlimit:4;stroke-dasharray:none;stroke-dashoffset:0;stroke-opacity:1;paint-order:normal" />
      <path
         inkscape:original-d="m 141.65285,183.6777 c 1.60362,-2.13816 3.09983,-4.36125 4.81085,-6.41447 0.80197,-0.96237 9.38764,1.98444 10.15624,2.13816 12.02528,2.40506 34.92671,4.1552 41.15951,0"
         inkscape:path-effect="#path-effect949"
         inkscape:connector-curvature="0"
         id="path947"
         d="m 141.65285,183.6777 c 0.005,-1.43219 0.48287,-2.8589 1.34219,-4.00466 0.85932,-1.14576 2.09507,-2.00428 3.46866,-2.40981 1.69605,-0.50073 3.53128,-0.31129 5.23055,0.17838 1.69928,0.48967 3.29857,1.26712 4.92569,1.95978 12.97095,5.52173 28.18856,5.52173 41.15951,0"
         style="opacity:1;fill:none;fill-opacity:1;stroke:#000000;stroke-width:5.39617634;stroke-linecap:round;stroke-linejoin:round;stroke-miterlimit:4;stroke-dasharray:none;stroke-dashoffset:0;stroke-opacity:1;paint-order:normal" />
      <path
         inkscape:original-d="m 141.65285,183.6777 c 2.67269,-3.91995 5.05428,-8.05511 8.01808,-11.75986 2.43757,-3.04695 12.34767,-3.20723 16.57071,-3.20723 2.88666,0 15.59368,0.86021 18.17433,0 1.15528,-0.38509 2.62646,-1.23185 3.74177,-1.60362 2.36083,-0.78694 4.90184,0.22178 8.55263,-1.60362"
         inkscape:path-effect="#path-effect1017"
         inkscape:connector-curvature="0"
         id="path1015"
         d="m 141.65285,183.6777 c 0.93245,-4.78737 3.9022,-9.14301 8.01808,-11.75986 4.83295,-3.07276 10.86253,-3.67182 16.57071,-3.20723 3.04743,0.24803 6.06865,0.7735 9.1196,0.9738 3.05094,0.20031 6.17842,0.0631 9.05473,-0.9738 1.27683,-0.4603 2.48507,-1.09088 3.74177,-1.60362 2.70398,-1.10323 5.63265,-1.65236 8.55263,-1.60362"
         style="opacity:1;fill:none;fill-opacity:1;stroke:#000000;stroke-width:5.39617634;stroke-linecap:round;stroke-linejoin:round;stroke-miterlimit:4;stroke-dasharray:none;stroke-dashoffset:0;stroke-opacity:1;paint-order:normal" />
      <path
         inkscape:original-d="m 96.21703,207.73196 c -2.316337,-2.85088 -4.351616,-5.95523 -6.949009,-8.55263 -0.164333,-0.16433 -8.526849,3.36824 -9.087165,3.74178 -3.427603,2.28507 -4.777994,6.65709 -8.018084,9.08716 -1.992169,1.49413 -5.232312,1.82848 -7.483546,2.6727 -4.040987,1.51537 -7.728773,4.45147 -11.225321,6.949 -2.454018,1.75287 -3.543443,1.40529 -5.87993,3.74178"
         inkscape:path-effect="#path-effect1021"
         inkscape:connector-curvature="0"
         id="path1019"
         d="m 96.21703,207.73196 c 0.140715,-2.01696 -0.511395,-4.07873 -1.786368,-5.64792 -1.274974,-1.5692 -3.159584,-2.62956 -5.162641,-2.90471 -1.685282,-0.2315 -3.423631,0.0814 -4.97939,0.76939 -1.555758,0.68803 -2.934536,1.74061 -4.107775,2.97239 -1.400958,1.47086 -2.511991,3.18737 -3.723548,4.81778 -1.211556,1.63042 -2.561585,3.20967 -4.294536,4.26938 -2.266126,1.38576 -4.985658,1.76926 -7.483546,2.6727 -4.152883,1.50202 -7.614322,4.40672 -11.225321,6.949 -1.900304,1.33789 -3.86313,2.58696 -5.87993,3.74178"
         style="opacity:1;fill:none;fill-opacity:1;stroke:#000000;stroke-width:5.39617634;stroke-linecap:round;stroke-linejoin:round;stroke-miterlimit:4;stroke-dasharray:none;stroke-dashoffset:0;stroke-opacity:1;paint-order:normal" />
      <path
         inkscape:original-d="m 86.595325,189.02309 c -5.885715,5.05111 -13.536107,6.92613 -20.312483,10.69078 -2.592314,1.44018 -4.891233,3.37068 -7.483547,4.81085 -0.492548,0.27364 -1.152853,0.19647 -1.603618,0.53454 -0.798986,0.59924 -1.073309,2.14028 -2.138156,2.6727 -0.949487,0.47474 -2.402811,0.79919 -3.207234,1.60362 -0.974675,0.97467 -0.04572,0.9896 -1.069078,1.60361 -2.959399,1.77564 -5.775936,3.79742 -8.552625,5.87993 -0.581038,0.43578 -0.982249,1.2308 -1.603615,1.60362 -2.010257,1.20615 -3.215095,1.61148 -4.810853,3.20723"
         inkscape:path-effect="#path-effect1025"
         inkscape:connector-curvature="0"
         id="path1023"
         d="m 86.595325,189.02309 c -7.413105,2.10656 -14.379051,5.77284 -20.312483,10.69078 -1.152186,0.95499 -2.267673,1.95784 -3.484409,2.8291 -1.216737,0.87126 -2.54848,1.61415 -3.999138,1.98175 -0.548944,0.1391 -1.126428,0.22962 -1.603618,0.53454 -0.484357,0.3095 -0.812662,0.80701 -1.11006,1.29889 -0.297397,0.49188 -0.587829,1.00427 -1.028096,1.37381 -0.460939,0.38689 -1.046924,0.58442 -1.615575,0.78136 -0.568651,0.19693 -1.151795,0.41157 -1.591659,0.82226 -0.471391,0.44013 -0.727314,1.05669 -1.069078,1.60361 -0.926346,1.48241 -2.48218,2.44584 -4.039379,3.24006 -1.5572,0.79422 -3.196998,1.48959 -4.513246,2.63987 -0.569387,0.49759 -1.066735,1.07112 -1.603615,1.60362 -1.376938,1.36571 -3.020603,2.46149 -4.810853,3.20723"
         style="opacity:1;fill:none;fill-opacity:1;stroke:#000000;stroke-width:5.39617634;stroke-linecap:round;stroke-linejoin:round;stroke-miterlimit:4;stroke-dasharray:none;stroke-dashoffset:0;stroke-opacity:1;paint-order:normal" />
      <path
         inkscape:original-d="m 86.595325,189.02309 c -2.672697,-2.67269 -5.034521,-5.69754 -8.018084,-8.01808 -0.211746,-0.16469 -5.860333,1.37172 -7.483547,1.60361 -5.727284,0.81819 -12.220662,0.33178 -17.639789,2.13816 -1.390671,0.46356 -2.892869,1.54525 -4.276312,2.13816 -1.192287,0.51097 -2.537383,0.58732 -3.741775,1.06907 -1.302141,0.52086 -1.905092,1.6173 -3.207234,2.13816 -3.263847,1.30554 -6.270529,2.36944 -9.621702,3.20723"
         inkscape:path-effect="#path-effect1029"
         inkscape:connector-curvature="0"
         id="path1027"
         d="m 86.595325,189.02309 c -0.05559,-2.08342 -0.937017,-4.13361 -2.410745,-5.60734 -1.473728,-1.47373 -3.523915,-2.35515 -5.607339,-2.41074 -2.560054,-0.0683 -4.984354,1.04452 -7.483547,1.60361 -2.907779,0.65049 -5.921849,0.54899 -8.901016,0.60273 -2.979166,0.0537 -6.034038,0.28534 -8.738773,1.53543 -1.448231,0.66935 -2.76766,1.61915 -4.276312,2.13816 -1.228025,0.42247 -2.552098,0.54831 -3.741775,1.06907 -1.179757,0.51642 -2.158872,1.39019 -3.207234,2.13816 -2.793222,1.99286 -6.191408,3.12559 -9.621702,3.20723"
         style="opacity:1;fill:none;fill-opacity:1;stroke:#000000;stroke-width:5.39617634;stroke-linecap:round;stroke-linejoin:round;stroke-miterlimit:4;stroke-dasharray:none;stroke-dashoffset:0;stroke-opacity:1;paint-order:normal" />
      <path
         inkscape:original-d="m 143.791,127.5511 c 4.29014,-3.2176 0.38512,0.20919 3.20724,-3.74177 2.43666,-3.41133 5.59418,-6.37751 7.48354,-10.15624 0.66206,-1.32411 2.33695,-5.07146 2.6727,-6.41447 0.12964,-0.51858 -0.23905,-1.12551 0,-1.60362 0.44154,-0.88307 1.16208,-0.186 1.60362,-1.06908 2.2517,-4.50341 4.28032,-10.692783 9.6217,-13.363474 1.59369,-0.796843 3.56359,0 5.34539,0"
         inkscape:path-effect="#path-effect1106"
         inkscape:connector-curvature="0"
         id="path1104"
         d="m 143.791,127.5511 c 1.1102,-1.21122 2.18006,-2.45939 3.20724,-3.74177 2.62922,-3.28245 4.97339,-6.78186 7.48354,-10.15624 0.70979,-0.95416 1.43733,-1.90547 1.96734,-2.97004 0.53001,-1.06458 0.85585,-2.26478 0.70536,-3.44443 -0.0344,-0.26931 -0.0931,-0.53558 -0.11386,-0.80628 -0.0207,-0.2707 -0.001,-0.55144 0.11386,-0.79734 0.13964,-0.29837 0.40789,-0.51911 0.69711,-0.67682 0.28922,-0.15771 0.60412,-0.26156 0.90651,-0.39226 1.29197,-0.55845 2.32858,-1.60046 3.10134,-2.77684 0.77277,-1.17639 1.30553,-2.491195 1.82108,-3.800879 0.51554,-1.309684 1.02277,-2.63195 1.7515,-3.836112 0.72873,-1.204163 1.70062,-2.29723 2.94778,-2.949643 1.64164,-0.858774 3.70375,-0.858774 5.34539,0"
         style="opacity:1;fill:none;fill-opacity:1;stroke:#000000;stroke-width:5.39617634;stroke-linecap:round;stroke-linejoin:round;stroke-miterlimit:4;stroke-dasharray:none;stroke-dashoffset:0;stroke-opacity:1;paint-order:normal" />
      <path
         inkscape:original-d="m 86.934523,129.17855 c -3.789963,-4.86281 -3.779763,-11.14696 -3.779763,-17.00893 0,-1.75967 0.793295,-5.97293 0,-7.55952 -1.761271,-3.52254 -0.959996,-7.705589 -3.401785,-10.961308 -0.941946,-1.25593 -1.458278,-2.052487 -2.267858,-3.401785 -0.62748,-1.045803 -2.123905,-1.224005 -2.645833,-2.267858 -0.530958,-1.061918 -3.88063,-4.39716 -4.913691,-4.91369 C 68.632948,82.419134 68.22279,81.362653 67.27976,80.419625 66.682127,79.821992 65.736641,79.720538 65.011905,79.285698 63.999474,78.678238 63.692039,77.649835 62.744048,77.01784 61.877799,76.44034 60.964463,76.461411 60.098214,75.88391 59.40653,75.422789 57.883935,74.047607 59.34226,75.505934"
         inkscape:path-effect="#path-effect1132"
         inkscape:connector-curvature="0"
         id="path1130"
         d="m 86.934523,129.17855 c -2.451969,-5.31395 -3.750344,-11.15664 -3.779763,-17.00893 -0.01267,-2.52091 0.206458,-5.04705 0,-7.55952 C 82.839352,100.77178 81.53297,97.06402 79.752975,93.648792 79.12109,92.436413 78.42042,91.244178 77.485117,90.247007 76.689705,89.39898 75.742717,88.711023 74.839284,87.979149 73.036205,86.51847 71.389339,84.86605 69.925593,83.065459 69.13399,82.091688 68.365988,81.048095 67.27976,80.419625 66.547003,79.995666 65.698817,79.780498 65.011905,79.285698 64.142186,78.659218 63.61392,77.644108 62.744048,77.01784 61.962828,76.455398 60.984273,76.260136 60.098214,75.88391 59.838728,75.773731 59.586095,75.647415 59.34226,75.505934"
         style="opacity:1;fill:none;fill-opacity:1;stroke:#000000;stroke-width:5.39617634;stroke-linecap:round;stroke-linejoin:round;stroke-miterlimit:4;stroke-dasharray:none;stroke-dashoffset:0;stroke-opacity:1;paint-order:normal" />
      <path
         inkscape:original-d="m 119.0625,159.41665 c -0.36832,-3.41119 -1.21734,-8.14867 0.37797,-11.33929 0.69617,-1.39234 2.52154,-2.45938 3.40179,-3.77976 0.35144,-0.52716 1.20151,-1.66042 1.88988,-1.88988 1.15699,-0.38566 5.39754,-0.39307 6.4256,0.37798 1.05677,0.79258 3.14638,3.1021 3.77976,4.15773 0.73321,1.22203 0.56737,2.64666 1.13393,3.77977 0.2697,0.53941 0.75595,0.45806 0.75595,1.13392"
         inkscape:path-effect="#path-effect1176"
         inkscape:connector-curvature="0"
         id="path1174"
         d="m 119.0625,159.41665 c -1.04175,-1.70908 -1.57182,-3.72568 -1.50514,-5.72611 0.0667,-2.00044 0.72986,-3.97726 1.88311,-5.61318 0.97754,-1.38667 2.27774,-2.50895 3.40179,-3.77976 0.59212,-0.66943 1.14782,-1.3918 1.88988,-1.88988 0.93941,-0.63054 2.11941,-0.84727 3.24495,-0.73222 1.12555,0.11506 2.20139,0.54351 3.18065,1.1102 1.65327,0.95672 3.10143,2.3721 3.77976,4.15773 0.46792,1.23173 0.55828,2.59456 1.13393,3.77977 0.19908,0.40988 0.45417,0.79251 0.75595,1.13392"
         style="opacity:1;fill:none;fill-opacity:1;stroke:#000000;stroke-width:5.39617634;stroke-linecap:round;stroke-linejoin:round;stroke-miterlimit:4;stroke-dasharray:none;stroke-dashoffset:0;stroke-opacity:1;paint-order:normal" />
      <path
         inkscape:original-d="m 103.56547,162.06248 c -1.17644,-2.20237 -1.41495,-4.42895 -1.88988,-6.80357 -0.24403,-1.22016 -0.59514,-3.45815 -1.13392,-4.53571 -0.31323,-0.62645 -1.083532,-0.70555 -1.51191,-1.13393 -0.460368,-0.46037 -0.177052,-0.84448 -0.755952,-1.13393 -1.360485,-0.68024 -5.684737,-1.50058 -7.181548,-0.37798 -0.22538,0.16904 -0.178763,0.55675 -0.377976,0.75596 -2.116744,2.11674 -4.535713,2.40862 -4.535713,5.66964 0,0.49952 -0.700209,0.43372 0.377976,1.5119"
         inkscape:path-effect="#path-effect1180"
         inkscape:connector-curvature="0"
         id="path1178"
         d="m 103.56547,162.06248 c -1.14963,-2.07866 -1.80271,-4.42978 -1.88988,-6.80357 -0.0294,-0.80195 0.004,-1.60969 -0.11949,-2.40258 -0.12376,-0.79288 -0.42453,-1.58907 -1.01443,-2.13313 -0.46402,-0.42796 -1.078143,-0.67533 -1.51191,-1.13393 -0.312804,-0.33071 -0.511497,-0.74993 -0.755952,-1.13393 -0.387266,-0.60834 -0.900296,-1.13868 -1.506458,-1.52934 -0.606163,-0.39067 -1.305644,-0.63977 -2.024225,-0.70056 -0.71858,-0.0608 -1.454943,0.069 -2.100996,0.38941 -0.646053,0.32042 -1.19852,0.83274 -1.549869,1.46251 -0.137283,0.24607 -0.243827,0.50817 -0.377976,0.75596 -0.590017,1.08984 -1.657174,1.81866 -2.605507,2.6165 -0.474166,0.39891 -0.929813,0.82796 -1.285941,1.33505 -0.356129,0.50709 -0.609976,1.09939 -0.644265,1.71809 -0.02918,0.52656 0.104432,1.06102 0.377976,1.5119"
         style="opacity:1;fill:none;fill-opacity:1;stroke:#000000;stroke-width:5.39617634;stroke-linecap:round;stroke-linejoin:round;stroke-miterlimit:4;stroke-dasharray:none;stroke-dashoffset:0;stroke-opacity:1;paint-order:normal" />
      <path
         inkscape:original-d="m 117.17262,204.39581 c -3.68215,-0.27446 -6.83018,0.66811 -10.20536,1.51191 -1.33461,0.33365 -2.23539,1.68466 -3.40179,2.26786 -0.61104,0.30552 -1.98164,0.65326 -2.26785,1.5119 -0.40343,1.21028 -0.37798,2.38314 -0.37798,3.77976 0,0.454 -0.19872,1.49244 0,1.88988 0.57225,1.14449 2.50625,2.97729 3.77976,3.40179 1.49909,0.49969 -2.22482,-2.09085 1.88988,0.37798 0.67718,0.4063 1.03318,1.8395 1.88989,2.26785 1.66321,0.83161 10.86882,2.88107 12.85119,1.88988 2.13697,-1.06848 2.02854,-3.06182 2.64583,-4.91369 0.6722,-2.01661 2.59938,-3.54748 3.02381,-5.66964 0.40702,-2.03511 -0.76343,-4.54568 -1.88988,-6.04762 -0.4758,-0.6344 -1.30366,-0.26073 -1.88988,-0.37797 -1.4442,-0.28884 -2.30954,-1.52233 -3.77977,-1.88989 -1.55234,-0.38808 -3.68907,0 -5.29166,0"
         inkscape:path-effect="#path-effect1217"
         inkscape:connector-curvature="0"
         id="path1215"
         d="m 117.17262,204.39581 c -3.41363,-0.935 -7.20945,-0.37265 -10.20536,1.51191 -1.15438,0.72616 -2.19293,1.63653 -3.40179,2.26786 -0.40734,0.21274 -0.83188,0.39255 -1.23038,0.62141 -0.39851,0.22887 -0.7757,0.51278 -1.03747,0.89049 -0.36772,0.53059 -0.47666,1.20055 -0.4771,1.84611 -4.5e-4,0.64556 0.0973,1.28809 0.0991,1.93365 0.002,0.63077 -0.0879,1.26526 0,1.88988 0.12651,0.89941 0.62642,1.72785 1.31792,2.31672 0.6915,0.58887 1.56433,0.94569 2.46184,1.08507 0.63783,0.0991 1.30852,0.0975 1.88988,0.37798 0.45,0.21709 0.80924,0.58833 1.10109,0.99386 0.29184,0.40553 0.52479,0.84981 0.7888,1.27399 1.32983,2.13666 3.52995,3.76275 6.00887,4.1972 1.23946,0.21722 2.53315,0.13862 3.72854,-0.25441 1.1954,-0.39303 2.28901,-1.10255 3.11378,-2.05291 1.22352,-1.40983 1.80132,-3.24893 2.64583,-4.91369 0.9705,-1.9131 2.32115,-3.6428 3.02381,-5.66964 0.38451,-1.10913 0.56334,-2.32113 0.28504,-3.46155 -0.13915,-0.57021 -0.39288,-1.11545 -0.76306,-1.57094 -0.37018,-0.45549 -0.85869,-0.8189 -1.41186,-1.01513 -0.60625,-0.21506 -1.26491,-0.22566 -1.88988,-0.37797 -1.37291,-0.33458 -2.48634,-1.3208 -3.77977,-1.88989 -1.6617,-0.73112 -3.62996,-0.73112 -5.29166,0"
         style="opacity:1;fill:none;fill-opacity:1;stroke:#000000;stroke-width:5.39617634;stroke-linecap:round;stroke-linejoin:round;stroke-miterlimit:4;stroke-dasharray:none;stroke-dashoffset:0;stroke-opacity:1;paint-order:normal" />
      <path
         inkscape:original-d="m 96.21703,207.73196 c 0.571341,0.35341 0.58348,0.8436 0.935442,1.33635 0.322149,0.451 1.579774,1.86492 2.138156,2.00452 0.06962,0.0174 0.861612,0.3411 0.801812,0.4009 -0.0446,0.0446 -0.196633,-0.13363 -0.133638,-0.13363 0.389598,0 0.816888,0.92036 0.801808,0.93544 -0.0445,0.0445 -0.0891,-0.0891 -0.13363,-0.13363"
         inkscape:path-effect="#path-effect2667"
         inkscape:connector-curvature="0"
         id="path2665"
         d="m 96.21703,207.73196 c 0.205306,0.50856 0.527872,0.96937 0.935442,1.33635 0.368113,0.33145 0.799524,0.58355 1.194975,0.88186 0.39545,0.2983 0.766555,0.65988 0.943181,1.12266 0.04123,0.10804 0.0713,0.22023 0.116198,0.3268 0.0449,0.10656 0.106644,0.20935 0.198206,0.27998 0.04578,0.0353 0.09864,0.062 0.155076,0.0746 0.05643,0.0126 0.116469,0.0107 0.171003,-0.008 0.05453,-0.0192 0.103199,-0.0562 0.133609,-0.10536 0.0304,-0.0492 0.0417,-0.11049 0.0277,-0.16659 -0.008,-0.0323 -0.0243,-0.0626 -0.0475,-0.0863 -0.0232,-0.0238 -0.0535,-0.0408 -0.08611,-0.0473 -0.04411,-0.009 -0.09137,0.002 -0.128148,0.0284 -0.03677,0.0259 -0.063,0.0657 -0.0744,0.10922 -0.01141,0.0435 -0.0083,0.0903 0.0066,0.13276 0.01488,0.0424 0.04127,0.0805 0.07426,0.11102 0.06599,0.0611 0.156054,0.091 0.245574,0.0997 0.0895,0.009 0.17964,-0.002 0.26887,-0.0135 0.0892,-0.0112 0.17922,-0.0228 0.26884,-0.0153 0.0896,0.007 0.1801,0.0355 0.24767,0.0949 0.0338,0.0297 0.0613,0.0669 0.0775,0.1088 0.0163,0.0419 0.021,0.0886 0.0114,0.13249 -0.01,0.0439 -0.0342,0.0848 -0.0697,0.11234 -0.0356,0.0275 -0.0821,0.0411 -0.12665,0.0347 -0.0334,-0.005 -0.0652,-0.0207 -0.0891,-0.0446 -0.0239,-0.0239 -0.0398,-0.0556 -0.0446,-0.0891"
         style="opacity:1;fill:none;fill-opacity:1;stroke:#000000;stroke-width:5.39617634;stroke-linecap:round;stroke-linejoin:round;stroke-miterlimit:4;stroke-dasharray:none;stroke-dashoffset:0;stroke-opacity:1;paint-order:normal" />
      <path
         inkscape:original-d="m 135.77292,200.78295 c -0.20489,2.21471 -1.40996,4.34992 -2.93997,5.87993 -0.55636,0.55636 -1.29178,1.02451 -1.87088,1.60362 -0.37253,0.37252 -0.54064,1.07213 -1.06908,1.33635 -0.16427,0.0821 -0.37027,0.0515 -0.53454,0.13363 -0.30916,0.15458 -0.28021,0.4009 -0.66817,0.4009"
         inkscape:path-effect="#path-effect2671"
         inkscape:connector-curvature="0"
         id="path2669"
         d="m 135.77292,200.78295 c -0.0276,2.2674 -1.14261,4.4974 -2.93997,5.87993 -0.65467,0.50357 -1.41053,0.91787 -1.87088,1.60362 -0.16211,0.24149 -0.28161,0.50914 -0.4383,0.75419 -0.15669,0.24504 -0.36077,0.47404 -0.63078,0.58216 -0.1707,0.0684 -0.35738,0.0844 -0.53454,0.13363 -0.25329,0.0704 -0.48683,0.21055 -0.66817,0.4009"
         style="opacity:1;fill:none;fill-opacity:1;stroke:#000000;stroke-width:5.39617634;stroke-linecap:round;stroke-linejoin:round;stroke-miterlimit:4;stroke-dasharray:none;stroke-dashoffset:0;stroke-opacity:1;paint-order:normal" />
    </g>
    <path
       style="opacity:1;fill:#ff1a1a;fill-opacity:1;stroke:none;stroke-width:10;stroke-linecap:round;stroke-linejoin:round;stroke-miterlimit:4;stroke-dasharray:none;stroke-dashoffset:0;stroke-opacity:1;paint-order:normal"
       d="m -220.55383,99.107603 c 3.25682,-3.761257 5.36317,-8.505475 5.96882,-13.443807 0.60564,-4.938332 -0.29185,-10.050947 -2.54324,-14.487742 -0.31355,-0.61791 -0.65293,-1.223689 -0.92655,-1.860287 -0.27363,-0.636598 -0.48173,-1.310075 -0.51654,-2.002112 -0.0348,-0.692036 0.11373,-1.406554 0.50353,-1.979422 0.1949,-0.286434 0.44838,-0.534379 0.74555,-0.712481 0.29717,-0.178103 0.63826,-0.285221 0.98452,-0.296832 0.57957,-0.01943 1.14996,0.232078 1.5774,0.623959 0.42744,0.391881 0.72005,0.914849 0.90223,1.465381 0.36436,1.101065 0.30289,2.290303 0.41893,3.444269 0.32135,3.195695 2.00663,6.094335 3.93735,8.661054 1.93072,2.566719 4.15126,4.927347 5.81234,7.676266 0.84455,1.397641 1.54001,2.888925 2.50009,4.209872 0.96008,1.320947 2.24422,2.491424 3.82403,2.904769 1.17832,0.308299 2.45656,0.166914 3.57097,-0.324586 1.11442,-0.4915 2.06599,-1.321326 2.7678,-2.316792 1.40362,-1.990932 1.78234,-4.553983 1.59065,-6.9824 -0.1917,-2.428417 -0.90457,-4.780032 -1.51163,-7.139149 -0.60706,-2.359117 -1.11482,-4.791016 -0.88418,-7.216045 0.23689,-2.490795 1.24521,-4.877154 1.31753,-7.378144 0.0256,-0.883916 -0.0654,-1.783544 0.14635,-2.642109 0.10586,-0.429283 0.28988,-0.844891 0.5774,-1.180786 0.28751,-0.335895 0.68407,-0.587626 1.12078,-0.656693 0.37741,-0.05969 0.77205,0.01961 1.10738,0.202799 0.33532,0.18319 0.61167,0.467035 0.80408,0.797153 0.38483,0.660236 0.42613,1.47807 0.26156,2.22434 -0.16458,0.74627 -0.51837,1.4359 -0.88922,2.104089 -0.37084,0.66819 -0.76462,1.329601 -1.02029,2.049764 -0.48162,1.3566 -0.44372,2.858673 -0.0989,4.256328 0.3448,1.397656 0.98256,2.705522 1.68515,3.961982 0.70259,1.256461 1.475,2.474883 2.11777,3.762974 0.64276,1.288091 1.1577,2.660285 1.3026,4.092531 0.11831,1.169381 -0.0111,2.363792 0.23012,3.514129 0.12059,0.575169 0.3374,1.138084 0.69637,1.603381 0.35897,0.465297 0.86888,0.827373 1.44505,0.943108 0.50584,0.10161 1.03969,0.0096 1.50823,-0.206492 0.46854,-0.216042 0.87526,-0.550845 1.22196,-0.932951 0.69339,-0.764213 1.15137,-1.708692 1.7494,-2.549629 1.17128,-1.647034 2.8613,-2.865622 4.66062,-3.785992 1.79932,-0.920371 3.7229,-1.567158 5.61608,-2.274627 4.81169,-1.798099 9.52961,-4.04589 13.43877,-7.378144 0.37797,-0.322189 0.7529,-0.657528 1.19527,-0.883293 0.22119,-0.112883 0.45845,-0.197234 0.7043,-0.232193 0.24585,-0.03496 0.5007,-0.01943 0.73548,0.06146 0.28006,0.0965 0.52555,0.285177 0.70125,0.523658 0.1757,0.23848 0.28247,0.525193 0.31837,0.819226 0.0718,0.588066 -0.13975,1.187039 -0.49065,1.664373 -0.35089,0.477333 -0.83203,0.844507 -1.33908,1.150898 -0.50705,0.306392 -1.04506,0.558054 -1.56144,0.848443 -2.88321,1.621381 -4.95395,4.361461 -6.7297,7.152245 -1.77575,2.790783 -3.36766,5.741569 -5.65504,8.131055 -0.95077,0.993209 -2.01369,1.878975 -3.16207,2.635051 -0.087,0.482613 -0.30732,0.940489 -0.63024,1.309542 -0.32292,0.369052 -0.74749,0.648245 -1.21429,0.798501 -0.37934,0.122103 -0.77975,0.15935 -1.17545,0.206564 -0.3957,0.04721 -0.79605,0.106772 -1.16003,0.269029 -0.18199,0.08113 -0.35357,0.187909 -0.49873,0.324397 -0.14517,0.136489 -0.26346,0.303317 -0.33321,0.489964 -0.0697,0.186646 -0.0896,0.393343 -0.0453,0.587606 0.0443,0.194262 0.15454,0.374779 0.3142,0.493985 0.13134,0.09806 0.29222,0.152779 0.45529,0.169327 0.16308,0.01655 0.32846,-0.0039 0.48695,-0.04565 0.31699,-0.08358 0.60459,-0.249935 0.9023,-0.387178 1.17057,-0.539629 2.49991,-0.6279 3.78721,-0.562397 1.2873,0.0655 2.56568,0.275697 3.85444,0.298891 2.19803,0.03956 4.38924,-0.263504 6.58763,-0.263504 h 2.37154 c 0.13194,0 0.26385,-0.0038 0.39565,-0.01 0.1318,-0.0062 0.26491,-0.01277 0.39487,0.01 0.2525,0.04424 0.47922,0.206008 0.61497,0.423457 0.13576,0.217449 0.18195,0.486334 0.14031,0.739277 -0.0416,0.252943 -0.16839,0.489014 -0.34618,0.673689 -0.17779,0.184675 -0.40505,0.318831 -0.64845,0.399256 -0.48681,0.160851 -1.0228,0.106765 -1.51298,-0.04349 -0.49018,-0.150254 -0.94631,-0.391844 -1.40973,-0.611159 -1.83103,-0.866543 -3.82898,-1.399968 -5.85351,-1.469466 -2.02453,-0.0695 -4.07457,0.332608 -5.88376,1.243879 -1.80919,0.911271 -3.36849,2.339424 -4.35756,4.107285 -0.98906,1.76785 -1.39015,3.874 -1.03301,5.86799 0.31222,1.74319 1.18353,3.3548 2.32018,4.71281 1.13666,1.35801 2.53302,2.47741 3.99653,3.47457 2.92702,1.99431 6.18869,3.56048 8.71136,6.04661 1.26134,1.24306 2.32369,2.71899 2.90908,4.39036 0.58538,1.67138 0.66772,3.54906 0.0393,5.20471 -0.31424,0.82783 -0.80261,1.59207 -1.44031,2.20639 -0.6377,0.61431 -1.42552,1.0762 -2.2802,1.30765 -0.85468,0.23146 -1.77498,0.22907 -2.62122,-0.0316 -0.84624,-0.26062 -1.61413,-0.78197 -2.14848,-1.48803 -0.30936,-0.40876 -0.53798,-0.87142 -0.79052,-1.31753 -1.14053,-2.01475 -2.77634,-3.70198 -4.47959,-5.2701 -4.13553,-3.80744 -8.89079,-7.19268 -11.59422,-12.12124 -0.70787,-1.2905 -1.26541,-2.6736 -2.14604,-3.853 -0.44031,-0.5897 -0.96216,-1.12554 -1.57991,-1.52554 -0.61776,-0.4 -1.33555,-0.66013 -2.07117,-0.68208 -1.03385,-0.0309 -2.04716,0.41417 -2.82709,1.09351 -0.77992,0.67935 -1.34317,1.57851 -1.7586,2.52572 -0.83086,1.89443 -1.1058,4.00253 -2.00194,5.86696 -1.1407,2.37325 -3.18528,4.15895 -5.00659,6.06062 -1.42456,1.48742 -2.73743,3.08021 -3.95258,4.74309 -0.6868,0.93985 -1.34898,1.9097 -2.19607,2.70811 -0.84708,0.79841 -1.91304,1.42379 -3.07404,1.50797 -0.83135,0.0603 -1.67492,-0.16447 -2.38752,-0.59688 -0.7126,-0.4324 -1.29508,-1.06686 -1.70092,-1.79492 -0.81169,-1.45611 -0.90026,-3.23496 -0.53253,-4.86095 0.36772,-1.626 1.15791,-3.12469 2.02879,-4.54619 0.87088,-1.42149 1.83239,-2.79102 2.59218,-4.27487 0.33508,-0.6544 0.63238,-1.33716 0.76373,-2.06053 0.13136,-0.72337 0.0869,-1.49539 -0.23671,-2.15556 -0.26604,-0.54278 -0.71323,-0.98968 -1.24158,-1.28335 -0.52835,-0.29366 -1.13483,-0.43692 -1.73928,-0.44281 -1.2089,-0.0118 -2.37349,0.51628 -3.33245,1.25246 -1.91792,1.47236 -3.10887,3.73231 -5.01742,5.2168 -1.21656,0.94625 -2.67618,1.53603 -4.16378,1.93909 -1.4876,0.40306 -3.01616,0.62983 -4.52931,0.9227 -1.51316,0.29288 -3.02618,0.65686 -4.42007,1.3145 -1.39388,0.65764 -2.67258,1.63028 -3.48767,2.93835 -0.34823,0.55884 -0.60634,1.16801 -0.90425,1.75522 -0.29792,0.5872 -0.64387,1.16301 -1.13138,1.60562 -0.24376,0.2213 -0.52176,0.40709 -0.82681,0.53092 -0.30505,0.12384 -0.63767,0.18462 -0.96587,0.15869 -0.3282,-0.0259 -0.65139,-0.14051 -0.91222,-0.3414 -0.26082,-0.2009 -0.45642,-0.4895 -0.52957,-0.8105 -0.053,-0.23265 -0.0419,-0.47776 0.0173,-0.70891 0.0592,-0.23116 0.16542,-0.44877 0.29861,-0.64675 0.26637,-0.39596 0.63514,-0.71017 1.00159,-1.01588 2.11854,-1.76738 4.32296,-3.43081 6.58763,-5.0066 2.80359,-1.95078 5.72027,-3.78405 8.15948,-6.17486 2.43922,-2.3908 4.40339,-5.44729 4.75226,-8.84493 0.18337,-1.78579 -0.0913,-3.61671 -0.79052,-5.270107 z"
       id="path1048"
       inkscape:connector-curvature="0"
       inkscape:path-effect="#path-effect1050"
       inkscape:original-d="m -220.55383,99.107603 c 2.72621,-9.040597 3.42558,-18.470467 3.42558,-27.931549 0,-0.667872 -0.56173,-6.175017 0.79051,-6.851134 0.24019,-0.120097 2.85406,5.452026 2.89856,5.533609 3.01843,5.533798 6.47809,10.948805 9.74969,16.33732 0.42401,0.69837 5.83732,10.522241 6.32412,7.114641 1.15996,-8.119716 4.23837,-15.883712 5.53361,-23.978972 0.40065,-2.504033 0.50461,-4.939396 1.31753,-7.378144 0.9344,-2.803223 1.80023,-4.701109 1.84453,-4.479588 0.47742,2.387074 -0.26719,4.936931 0.26351,7.378145 1.17614,5.410265 3.17795,10.849114 5.0066,16.073815 0.35019,1.000547 1.952,5.780922 2.37154,6.060618 0.76849,0.512323 4.26035,-3.501153 4.47959,-3.689072 3.1079,-2.663911 6.76883,-4.111805 10.2767,-6.060619 4.47091,-2.483836 8.9036,-4.977172 13.43877,-7.378144 0.83607,-0.442628 2.11029,-1.841151 2.63505,-1.054021 0.41775,0.626623 -2.16326,4.673328 -2.37155,5.006598 -3.48377,5.574039 -7.42525,10.943743 -12.38474,15.2833 -1.05402,0.87835 -2.10805,1.756701 -3.16207,2.635051 -0.61484,0.702681 -1.16032,1.472704 -1.84453,2.108043 -1.71295,1.590596 -3.25035,2.019752 -2.89856,2.371545 0.43918,0.439177 1.2256,-0.211926 1.84454,-0.263504 2.54151,-0.211793 5.09896,-0.08189 7.64165,-0.263506 2.22522,-0.158943 4.34631,-0.263504 6.58763,-0.263504 0.79051,0 1.58103,0 2.37154,0 0.26351,0 0.79052,-0.263507 0.79052,0 0,0.627274 -2.53582,1.267907 -3.16206,1.581031 -1.87421,0.937104 -16.92673,8.543038 -17.12784,9.749688 -0.90752,5.44511 9.48619,18.60149 9.48619,25.82351 0,0.51216 -0.50642,-0.89138 -0.79052,-1.31753 -1.28401,-1.92601 -2.87601,-3.5722 -4.47959,-5.2701 -4.06669,-4.30592 -7.72316,-7.52435 -11.59422,-12.12124 -0.46257,-0.5493 -5.47993,-6.31437 -5.79712,-6.06062 -3.00844,2.40676 -4.17149,6.55231 -6.58763,9.48619 -1.67711,2.03649 -3.38679,3.95487 -5.00659,6.06062 -1.29046,1.67758 -2.45139,3.2419 -3.95258,4.74309 -0.46398,0.46397 -4.78435,5.02568 -5.27011,4.21608 -2.01152,-3.35254 -0.72896,-12.67198 0,-16.07381 0.15905,-0.74222 1.60351,-4.03667 0.52702,-4.21609 -2.74936,-0.45822 -8.91043,3.67817 -11.33073,4.7431 -5.50473,2.42208 -11.10191,4.67067 -16.60083,7.11464 -1.63515,0.72674 -3.55851,2.47066 -5.2701,2.89855 -0.87731,0.21933 0.67807,-1.7321 1.31754,-2.37154 1.96768,-1.96769 3.94417,-3.91812 6.58763,-5.0066 10.64723,-4.38415 12.91174,-4.88406 12.91174,-15.01979 0,-1.92851 0.38148,-3.70746 -0.79052,-5.270107 z" />
    <text
       xml:space="preserve"
       style="font-style:normal;font-variant:normal;font-weight:normal;font-stretch:normal;font-size:10.58333302px;line-height:125%;font-family:Lato;-inkscape-font-specification:Lato;letter-spacing:0px;word-spacing:0px;fill:#000000;fill-opacity:1;stroke:none;stroke-width:0.26458332px;stroke-linecap:butt;stroke-linejoin:miter;stroke-opacity:1"
       x="-205.79752"
       y="101.74265"
       id="text1034"><tspan
         sodipodi:role="line"
         id="tspan1032"
         x="-205.79752"
         y="101.74265"
         style="font-style:normal;font-variant:normal;font-weight:normal;font-stretch:normal;font-family:'Zilla Slab';-inkscape-font-specification:'Zilla Slab';stroke-width:0.26458332px">NEW</tspan></text>
    <text
       xml:space="preserve"
       style="font-style:normal;font-variant:normal;font-weight:normal;font-stretch:normal;font-size:12.11584568px;line-height:125%;font-family:Lato;-inkscape-font-specification:Lato;letter-spacing:0px;word-spacing:0px;fill:#ffff00;fill-opacity:1;stroke:none;stroke-width:0.30289614px;stroke-linecap:butt;stroke-linejoin:miter;stroke-opacity:1"
       x="-275.66693"
       y="-32.331268"
       id="text1034-9"
       transform="rotate(-17.437962)"
       inkscape:export-filename="/home/chateau/Ordinatorite/apps/eauchat/images/game/new.png"
       inkscape:export-xdpi="85.709999"
       inkscape:export-ydpi="85.709999"><tspan
         sodipodi:role="line"
         id="tspan1032-6"
         x="-275.66693"
         y="-32.331268"
         style="font-style:normal;font-variant:normal;font-weight:normal;font-stretch:normal;font-family:'Zilla Slab';-inkscape-font-specification:'Zilla Slab';fill:#ffff00;stroke-width:0.30289614px">NEW</tspan></text>
    <path
       style="fill:#ff1a1a;fill-opacity:1;fill-rule:evenodd;stroke:#000000;stroke-width:0.26458332px;stroke-linecap:butt;stroke-linejoin:miter;stroke-opacity:1"
       d="m -320.99164,94.902191 c 24.84234,30.543289 44.9658,31.455399 31.0936,-3.162062 0.98761,21.324561 5.11416,30.950491 21.87094,13.438761 -6.31711,6.99266 -35.74496,12.22053 1.58102,21.34392 -31.55265,2.32876 -59.39124,20.11083 -9.7497,26.08702 -1.18028,-11.67034 -66.40413,-43.73421 -29.90784,-2.37155 -12.68435,-42.95071 5.98167,-3.59462 -23.05667,-22.39794 6.06612,17.12741 27.22553,-22.72262 -6.58764,-10.80372 37.66655,2.01745 55.40374,-1.83533 14.75629,-22.134429 z"
       id="path1052-7"
       inkscape:connector-curvature="0"
       sodipodi:nodetypes="ccccccccc" />
    <text
       xml:space="preserve"
       style="font-style:normal;font-variant:normal;font-weight:normal;font-stretch:normal;font-size:10.58333302px;line-height:125%;font-family:Lato;-inkscape-font-specification:Lato;letter-spacing:0px;word-spacing:0px;fill:#ffff00;fill-opacity:1;stroke:none;stroke-width:0.26458332px;stroke-linecap:butt;stroke-linejoin:miter;stroke-opacity:1"
       x="-311.78244"
       y="127.32733"
       id="text1034-9-5"><tspan
         sodipodi:role="line"
         id="tspan1032-6-6"
         x="-311.78244"
         y="127.32733"
         style="font-style:normal;font-variant:normal;font-weight:normal;font-stretch:normal;font-family:'Zilla Slab';-inkscape-font-specification:'Zilla Slab';fill:#ffff00;stroke-width:0.26458332px">NEW</tspan></text>
    <path
       style="fill:#ffc0fe;fill-opacity:1;fill-rule:evenodd;stroke:none;stroke-width:0.26458332px;stroke-linecap:butt;stroke-linejoin:miter;stroke-opacity:1"
       d="m -204.7819,-16.535389 c 28.98584,13.6267417 25.07238,11.1466777 26.99747,-15.746339 5.78818,20.904168 7.56194,30.8397457 25.4717,3.182922 -2.85693,8.980033 -16.43415,25.4438147 10.65397,21.2077037 -14.73383,8.32042502 -10.56906,9.936175 1.91112,17.8985113 -0.75983,0.505003 -35.2946,-17.6126873 -26.39985,19.28485 -10.72063,-20.9975821 -9.15921,-20.0028681 -27.13456,-2.743711 13.97726,-24.4316803 10.4544,-20.3688003 -15.77314,-16.8271211 28.65114,-9.22899818 26.56463,-8.4528142 4.27329,-26.2568159 z"
       id="path1052-4"
       inkscape:connector-curvature="0"
       sodipodi:nodetypes="ccccccccc"
       inkscape:export-filename="/home/chateau/Ordinatorite/apps/eauchat/images/game/new.png"
       inkscape:export-xdpi="85.709999"
       inkscape:export-ydpi="85.709999" />
    <text
       xml:space="preserve"
       style="font-style:normal;font-variant:normal;font-weight:normal;font-stretch:normal;font-size:12.11584568px;line-height:125%;font-family:Lato;-inkscape-font-specification:Lato;letter-spacing:0px;word-spacing:0px;fill:#000000;fill-opacity:1;stroke:none;stroke-width:0.30289614px;stroke-linecap:butt;stroke-linejoin:miter;stroke-opacity:1"
       x="-176.86874"
       y="-48.771641"
       id="text1034-9-3"
       transform="rotate(-17.437961)"
       inkscape:export-filename="/home/chateau/Ordinatorite/apps/eauchat/images/game/new.png"
       inkscape:export-xdpi="85.709999"
       inkscape:export-ydpi="85.709999"><tspan
         sodipodi:role="line"
         id="tspan1032-6-0"
         x="-176.86874"
         y="-48.771641"
         style="font-style:normal;font-variant:normal;font-weight:normal;font-stretch:normal;font-family:'Zilla Slab';-inkscape-font-specification:'Zilla Slab';fill:#000000;fill-opacity:1;stroke-width:0.30289614px">NEW</tspan></text>
    <path
       style="fill:#0088ff;fill-opacity:1;fill-rule:evenodd;stroke:none;stroke-width:0.26458332px;stroke-linecap:butt;stroke-linejoin:miter;stroke-opacity:1"
       d="m -298.69035,-48.583512 c 28.98584,13.626742 25.07238,11.146678 26.99747,-15.746339 5.78818,20.904168 7.56194,30.839746 25.4717,3.182922 -2.85693,8.980033 -16.43415,25.443815 10.65397,21.207704 -14.73383,8.320425 -10.56906,9.936175 1.91112,17.898511 -0.75983,0.505003 -35.2946,-17.612687 -26.39985,19.2848504 -10.72063,-20.9975824 -9.15921,-20.0028684 -27.13456,-2.743711 13.97726,-24.4316804 10.4544,-20.3688004 -15.77314,-16.8271214 28.65114,-9.228998 26.56463,-8.452814 4.27329,-26.256816 z"
       id="path1052-4-0"
       inkscape:connector-curvature="0"
       sodipodi:nodetypes="ccccccccc"
       inkscape:export-filename="/home/chateau/Ordinatorite/apps/eauchat/images/game/new-hover.png"
       inkscape:export-xdpi="85.709999"
       inkscape:export-ydpi="85.709999" />
    <text
       xml:space="preserve"
       style="font-style:normal;font-variant:normal;font-weight:normal;font-stretch:normal;font-size:12.11584568px;line-height:125%;font-family:Lato;-inkscape-font-specification:Lato;letter-spacing:0px;word-spacing:0px;fill:#ffc0fe;fill-opacity:1;stroke:none;stroke-width:0.30289614px;stroke-linecap:butt;stroke-linejoin:miter;stroke-opacity:1"
       x="-257.20367"
       y="-108.15213"
       id="text1034-9-3-2"
       transform="rotate(-17.437961)"
       inkscape:export-filename="/home/chateau/Ordinatorite/apps/eauchat/images/game/new-hover.png"
       inkscape:export-xdpi="85.709999"
       inkscape:export-ydpi="85.709999"><tspan
         sodipodi:role="line"
         id="tspan1032-6-0-5"
         x="-257.20367"
         y="-108.15213"
         style="font-style:normal;font-variant:normal;font-weight:normal;font-stretch:normal;font-family:'Zilla Slab';-inkscape-font-specification:'Zilla Slab';fill:#ffc0fe;fill-opacity:1;stroke-width:0.30289614px">NEW</tspan></text>
    <text
       xml:space="preserve"
       style="font-style:normal;font-variant:normal;font-weight:normal;font-stretch:normal;font-size:12.11584568px;line-height:125%;font-family:Lato;-inkscape-font-specification:Lato;letter-spacing:0px;word-spacing:0px;fill:#000000;fill-opacity:1;stroke:none;stroke-width:0.30289614px;stroke-linecap:butt;stroke-linejoin:miter;stroke-opacity:1"
       x="-170.83463"
       y="-44.71537"
       id="text1034-9-3-3"
       transform="rotate(-17.437961)"
       inkscape:export-filename="/home/chateau/Ordinatorite/apps/eauchat/images/game/new.png"
       inkscape:export-xdpi="85.709999"
       inkscape:export-ydpi="85.709999"><tspan
         sodipodi:role="line"
         id="tspan1032-6-0-8"
         x="-170.83463"
         y="-44.71537"
         style="font-style:normal;font-variant:normal;font-weight:normal;font-stretch:normal;font-size:4.93888903px;font-family:'Zilla Slab';-inkscape-font-specification:'Zilla Slab';fill:#000000;fill-opacity:1;stroke-width:0.30289614px">click me</tspan></text>
    <text
       xml:space="preserve"
       style="font-style:normal;font-variant:normal;font-weight:normal;font-stretch:normal;font-size:12.11584568px;line-height:125%;font-family:Lato;-inkscape-font-specification:Lato;letter-spacing:0px;word-spacing:0px;fill:#ffc0fe;fill-opacity:1;stroke:none;stroke-width:0.30289614px;stroke-linecap:butt;stroke-linejoin:miter;stroke-opacity:1;"
       x="-252.14026"
       y="-104.32354"
       id="text1034-9-3-3-5"
       transform="rotate(-17.437961)"
       inkscape:export-filename="/home/chateau/Ordinatorite/apps/eauchat/images/game/new-hover.png"
       inkscape:export-xdpi="85.709999"
       inkscape:export-ydpi="85.709999"><tspan
         sodipodi:role="line"
         id="tspan1032-6-0-8-0"
         x="-252.14026"
         y="-104.32354"
         style="font-style:normal;font-variant:normal;font-weight:normal;font-stretch:normal;font-size:4.93888903px;font-family:'Zilla Slab';-inkscape-font-specification:'Zilla Slab';fill:#ffc0fe;fill-opacity:1;stroke-width:0.30289614px;">click me</tspan></text>
  </g>
</svg>
